Education group sums — edu_group_sum • wcde
…
library(tidyverse)
#> ── Attaching core tidyverse packages ──────────────────────── tidyverse 2.0.0 ──
#> ✔ dplyr     1.1.4     ✔ readr     2.1.5
#> ✔ forcats   1.0.0     ✔ stringr   1.5.1
#> ✔ ggplot2   3.5.1     ✔ tibble    3.2.1
#> ✔ lubridate 1.9.4     ✔ tidyr     1.3.1
#> ✔ purrr     1.0.4     
#> ── Conflicts ────────────────────────────────────────── tidyverse_conflicts() ──
#> ✖ dplyr::filter() masks stats::filter()
#> ✖ dplyr::lag()    masks stats::lag()
#> ℹ Use the conflicted package (<http://conflicted.r-lib.org/>) to force all conflicts to become errors
past_epop %>%
  filter(year == 2020) %>%
  edu_group_sum()
#> # A tibble: 42,210 × 7
#>    name     country_code  year age   sex    education       epop
#>    <fct>           <dbl> <dbl> <fct> <fct>  <fct>          <dbl>
#>  1 Bulgaria          100  2020 0--4  Male   Under 15        161.
#>  2 Bulgaria          100  2020 0--4  Male   No Education      0 
#>  3 Bulgaria          100  2020 0--4  Male   Primary           0 
#>  4 Bulgaria          100  2020 0--4  Male   Secondary         0 
#>  5 Bulgaria          100  2020 0--4  Male   Post Secondary    0 
#>  6 Bulgaria          100  2020 0--4  Female Under 15        152.
#>  7 Bulgaria          100  2020 0--4  Female No Education      0 
#>  8 Bulgaria          100  2020 0--4  Female Primary           0 
#>  9 Bulgaria          100  2020 0--4  Female Secondary         0 
#> 10 Bulgaria          100  2020 0--4  Female Post Secondary    0 
#> # ℹ 42,200 more rows
…
