Download data from the Wittgenstein Centre Human Capital Data Explorer — get_wcde • wcde
…
See wic_scenarios data frame for more details.

    Examples

# \donttest{
# SSP2 tfr for Austria and Bulgaria
get_wcde(indicator = "tfr", country_code = c(40, 100))
#> # A tibble: 32 × 5
#>    scenario name     country_code period      tfr
#>       <dbl> <chr>           <dbl> <chr>     <dbl>
#>  1        2 Austria            40 2020-2025  1.45
#>  2        2 Bulgaria          100 2020-2025  1.57
#>  3        2 Austria            40 2025-2030  1.48
#>  4        2 Bulgaria          100 2025-2030  1.56
#>  5        2 Austria            40 2030-2035  1.51
#>  6        2 Bulgaria          100 2030-2035  1.59
#>  7        2 Austria            40 2035-2040  1.54
#>  8        2 Bulgaria          100 2035-2040  1.60
#>  9        2 Austria            40 2040-2045  1.57
#> 10        2 Bulgaria          100 2040-2045  1.59
#> # … with 22 more rows

# SSP1 and SSP2 life expectancy for Vietnam and United Kingdom (guessing the country codes)
get_wcde(scenario = c(1, 2), indicator = "e0", country_name = c("Vietnam", "UK"))
#> # A tibble: 128 × 6
#>    scenario name                                      count…¹ sex   period    e0
#>       <dbl> <chr>                                       <dbl> <chr> <chr>  <dbl>
#>  1        1 Viet Nam                                      704 Male  2020-…  71.2
#>  2        1 United Kingdom of Great Britain and Nort…     826 Male  2020-…  80.4
#>  3        1 Viet Nam                                      704 Fema… 2020-…  80.3
#>  4        1 United Kingdom of Great Britain and Nort…     826 Fema… 2020-…  84.3
#>  5        1 Viet Nam                                      704 Male  2025-…  73.2
#>  6        1 United Kingdom of Great Britain and Nort…     826 Male  2025-…  82.5
#>  7        1 Viet Nam                                      704 Fema… 2025-…  82.0
#>  8        1 United Kingdom of Great Britain and Nort…     826 Fema… 2025-…  86.2
#>  9        1 Viet Nam                                      704 Male  2030-…  75.1
#> 10        1 United Kingdom of Great Britain and Nort…     826 Male  2030-…  84.0
#> # … with 118 more rows, and abbreviated variable name ¹​country_code

# SSP1 and SSP3 population by education for all countries
get_wcde(scenario = c(1, 3), indicator = "tfr")
#> # A tibble: 7,296 × 5
#>    scenario name                     country_code period      tfr
#>       <dbl> <chr>                           <dbl> <chr>     <dbl>
#>  1        1 Bulgaria                          100 2020-2025  1.53
#>  2        1 Myanmar                           104 2020-2025  1.94
#>  3        1 Burundi                           108 2020-2025  4.55
#>  4        1 Belarus                           112 2020-2025  1.32
#>  5        1 Cambodia                          116 2020-2025  2.13
#>  6        1 Algeria                            12 2020-2025  2.76
#>  7        1 Cameroon                          120 2020-2025  4.01
#>  8        1 Canada                            124 2020-2025  1.37
#>  9        1 Cape Verde                        132 2020-2025  1.80
#> 10        1 Central African Republic          140 2020-2025  5.15
#> # … with 7,286 more rows
…
# population totals by education group
get_wcde(indicator = "pop", country_name = "Austria", pop_edu = "four")
#> # A tibble: 85 × 6
#>    scenario name    country_code  year education           pop
#>       <dbl> <fct>          <dbl> <dbl> <fct>             <dbl>
#>  1        2 Austria           40  2020 Under 15       1283.   
#>  2        2 Austria           40  2020 No Education      0.763
#>  3        2 Austria           40  2020 Primary         431.   
#>  4        2 Austria           40  2020 Secondary      5052.   
#>  5        2 Austria           40  2020 Post Secondary 2134.   
#>  6        2 Austria           40  2025 Under 15       1295.   
#>  7        2 Austria           40  2025 No Education      3.19 
#>  8        2 Austria           40  2025 Primary         343.   
#>  9        2 Austria           40  2025 Secondary      5056.   
#> 10        2 Austria           40  2025 Post Secondary 2347.   
#> # … with 75 more rows

# population totals by age-sex group
get_wcde(indicator = "pop", country_name = "Austria", pop_age = "all", pop_sex = "both")
#> # A tibble: 714 × 7
#>    scenario name    country_code age    sex    year   pop
#>       <dbl> <chr>          <dbl> <chr>  <chr> <dbl> <dbl>
#>  1        2 Austria           40 0--4   Male   2020  224.
#>  2        2 Austria           40 5--9   Male   2020  219.
#>  3        2 Austria           40 10--14 Male   2020  216.
#>  4        2 Austria           40 15--19 Male   2020  226.
#>  5        2 Austria           40 20--24 Male   2020  266.
#>  6        2 Austria           40 25--29 Male   2020  308.
#>  7        2 Austria           40 30--34 Male   2020  309.
#>  8        2 Austria           40 35--39 Male   2020  307.
#>  9        2 Austria           40 40--44 Male   2020  283.
#> 10        2 Austria           40 45--49 Male   2020  309.
#> # … with 704 more rows
…
