Overview of the wcde package • wcde
…
indicator: a short code for the indicator of
interest

scenario: a number referring to a SSP narrative, by
default 2 is used (for SSP2)

country_code (or country_name):
corresponding to the country of interest

library(wcde)
# download education specific tfr data
get_wcde(indicator = "etfr",
         country_name = c("Brazil", "Albania"))
#> # A tibble: 192 × 6
#>    scenario name    country_code education          period     etfr
#>       <dbl> <chr>          <dbl> <chr>              <chr>     <dbl>
#>  1        2 Brazil            76 No Education       2020-2025   2.2
#>  2        2 Albania            8 No Education       2020-2025   2.3
#>  3        2 Brazil            76 Incomplete Primary 2020-2025   2.2
#>  4        2 Albania            8 Incomplete Primary 2020-2025   2.5
#>  5        2 Brazil            76 Primary            2020-2025   2.2
#>  6        2 Albania            8 Primary            2020-2025   2.2
#>  7        2 Brazil            76 Lower Secondary    2020-2025   1.8
#>  8        2 Albania            8 Lower Secondary    2020-2025   1.9
#>  9        2 Brazil            76 Upper Secondary    2020-2025   1.3
#> 10        2 Albania            8 Upper Secondary    2020-2025   1.6
#> # ℹ 182 more rows

# download education specific survivorship rates
get_wcde(indicator = "eassr",
         country_name = c("Niger", "Korea"))
#> # A tibble: 8,448 × 8
#>    scenario name              country_code age    sex   education   period eassr
#>       <dbl> <chr>                    <dbl> <chr>  <chr> <chr>       <chr>  <dbl>
#>  1        2 Niger                      562 15--19 Male  No Educati… 2020-… 0.986
#>  2        2 Republic of Korea          410 15--19 Male  No Educati… 2020-… 0.999
#>  3        2 Niger                      562 15--19 Male  Incomplete… 2020-… 0.988
#>  4        2 Republic of Korea          410 15--19 Male  Incomplete… 2020-… 0.999
#>  5        2 Niger                      562 15--19 Male  Primary     2020-… 0.989
#>  6        2 Republic of Korea          410 15--19 Male  Primary     2020-… 0.999
#>  7        2 Niger                      562 15--19 Male  Lower Seco… 2020-… 0.992
#>  8        2 Republic of Korea          410 15--19 Male  Lower Seco… 2020-… 0.999
#>  9        2 Niger                      562 15--19 Male  Upper Seco… 2020-… 0.992
#> 10        2 Republic of Korea          410 15--19 Male  Upper Seco… 2020-… 0.999
#> # ℹ 8,438 more rows
…
library(tidyverse)
get_wcde(indicator = "e0",
         country_name = c("Japan", "Australia")) %>%
  filter(period == "2015-2020")
#> # A tibble: 0 × 6
#> # ℹ 6 variables: scenario <dbl>, name <chr>, country_code <dbl>, sex <chr>,
#> #   period <chr>, e0 <dbl>

get_wcde(indicator = "sexratio",
         country_name = c("China", "South Korea")) %>%
  filter(year == 2020)
#> # A tibble: 44 × 6
#>    scenario name              country_code age     year sexratio
#>       <dbl> <chr>                    <dbl> <chr>  <dbl>    <dbl>
#>  1        2 China                      156 All     2020     1.05
#>  2        2 Republic of Korea          410 All     2020     1   
#>  3        2 China                      156 0--4    2020     1.14
#>  4        2 Republic of Korea          410 0--4    2020     1.05
#>  5        2 China                      156 5--9    2020     1.16
#>  6        2 Republic of Korea          410 5--9    2020     1.05
#>  7        2 China                      156 10--14  2020     1.17
#>  8        2 Republic of Korea          410 10--14  2020     1.07
#>  9        2 China                      156 15--19  2020     1.17
#> 10        2 Republic of Korea          410 15--19  2020     1.08
#> # ℹ 34 more rows

Past data is only available for selected indicators. These can be
viewed using the version column:

wic_indicators %>%
  filter(`wcde-v2` == "past-available") %>%
  select(1:2)
#> # A tibble: 28 × 2
#>    indicator description                                     
#>    <chr>     <chr>                                           
#>  1 asfr      Age-Specific Fertility Rate                     
#>  2 assr      Age-Specific Survival Ratio                     
#>  3 bmys      Mean Years of Schooling by Broad Age            
#>  4 bpop      Population Size by Broad Age (000's)            
#>  5 bprop     Educational Attainment Distribution by Broad Age
#>  6 cbr       Crude Birth Rate                                
#>  7 cdr       Crude Death Rate                                
#>  8 e0        Life Expectancy at Birth                        
#>  9 epop      Population Size by Education (000's)            
#> 10 ggapedu15 Gender Gap in Educational Attainment (15+)      
#> # ℹ 18 more rows
…
Country names and codes

Country names are guessed using the countrycode
package.

get_wcde(indicator = "tfr",
         country_name = c("U.A.E", "Espania", "Österreich"))
#> # A tibble: 48 × 5
#>    scenario name                 country_code period      tfr
#>       <dbl> <chr>                       <dbl> <chr>     <dbl>
#>  1        2 United Arab Emirates          784 2020-2025  1.33
#>  2        2 Spain                         724 2020-2025  1.17
#>  3        2 Austria                        40 2020-2025  1.44
#>  4        2 United Arab Emirates          784 2025-2030  1.33
#>  5        2 Spain                         724 2025-2030  1.20
#>  6        2 Austria                        40 2025-2030  1.44
#>  7        2 United Arab Emirates          784 2030-2035  1.34
#>  8        2 Spain                         724 2030-2035  1.25
#>  9        2 Austria                        40 2030-2035  1.45
#> 10        2 United Arab Emirates          784 2035-2040  1.36
#> # ℹ 38 more rows

The get_wcde() functions accepts ISO alpha numeric codes
for countries via the country_code argument:

get_wcde(indicator = "etfr", country_code = c(44, 100))
#> # A tibble: 192 × 6
#>    scenario name     country_code education          period     etfr
#>       <dbl> <chr>           <dbl> <chr>              <chr>     <dbl>
#>  1        2 Bahamas            44 No Education       2020-2025   2.2
#>  2        2 Bulgaria          100 No Education       2020-2025   1.9
#>  3        2 Bahamas            44 Incomplete Primary 2020-2025   2.2
#>  4        2 Bulgaria          100 Incomplete Primary 2020-2025   1.9
#>  5        2 Bahamas            44 Primary            2020-2025   2.2
#>  6        2 Bulgaria          100 Primary            2020-2025   1.9
#>  7        2 Bahamas            44 Lower Secondary    2020-2025   1.7
#>  8        2 Bulgaria          100 Lower Secondary    2020-2025   1.9
#>  9        2 Bahamas            44 Upper Secondary    2020-2025   1.5
#> 10        2 Bulgaria          100 Upper Secondary    2020-2025   1.5
#> # ℹ 182 more rows

A full list of available countries and region aggregates, and their
codes, can be found in the wic_locations data frame.

wic_locations
#> # A tibble: 232 × 8
#>    name               isono continent region dim   `wcde-v3` `wcde-v2` `wcde-v1`
#>    <chr>              <dbl> <chr>     <chr>  <chr> <lgl>     <lgl>     <lgl>    
#>  1 World                900 NA        NA     area  TRUE      TRUE      TRUE     
#>  2 Africa               903 NA        NA     area  TRUE      TRUE      TRUE     
#>  3 Asia                 935 NA        NA     area  TRUE      TRUE      TRUE     
#>  4 Europe               908 NA        NA     area  TRUE      TRUE      TRUE     
#>  5 Latin America and…   904 NA        NA     area  TRUE      TRUE      TRUE     
#>  6 Northern America     905 NA        NA     area  TRUE      TRUE      TRUE     
#>  7 Oceania              909 NA        NA     area  TRUE      TRUE      TRUE     
#>  8 Afghanistan            4 Asia      South… coun… TRUE      TRUE      TRUE     
#>  9 Albania                8 Europe    South… coun… TRUE      TRUE      TRUE     
#> 10 Algeria               12 Africa    North… coun… TRUE      TRUE      TRUE     
#> # ℹ 222 more rows
…
All countries data

Data for all countries can be obtained by not setting
country_name or country_code

get_wcde(indicator = "mage")
#> # A tibble: 3,876 × 5
#>    scenario name                     country_code  year  mage
#>       <dbl> <chr>                           <dbl> <dbl> <dbl>
#>  1        2 Bulgaria                          100  2020  40.1
#>  2        2 Myanmar                           104  2020  24.6
#>  3        2 Burundi                           108  2020  11.5
#>  4        2 Belarus                           112  2020  35.9
#>  5        2 Cambodia                          116  2020  22  
#>  6        2 Algeria                            12  2020  23.5
#>  7        2 Cameroon                          120  2020  13.5
#>  8        2 Canada                            124  2020  35.9
#>  9        2 Cape Verde                        132  2020  21.8
#> 10        2 Central African Republic          140  2020  10.7
#> # ℹ 3,866 more rows
…
mi <- tibble(ind = c("odr", "nirate", "ggapedu25")) %>%
  mutate(d = map(.x = ind, .f = ~get_wcde(indicator = .x)))
mi
#> # A tibble: 3 × 2
#>   ind       d                    
#>   <chr>     <list>               
#> 1 odr       <tibble [3,876 × 5]> 
#> 2 nirate    <tibble [3,648 × 5]> 
#> 3 ggapedu25 <tibble [23,256 × 6]>

mi %>%
  filter(ind == "odr") %>%
  select(-ind) %>%
  unnest(cols = d)
#> # A tibble: 3,876 × 5
#>    scenario name                     country_code  year   odr
#>       <dbl> <chr>                           <dbl> <dbl> <dbl>
#>  1        2 Bulgaria                          100  2020  0.35
#>  2        2 Myanmar                           104  2020  0.09
#>  3        2 Burundi                           108  2020  0.05
#>  4        2 Belarus                           112  2020  0.25
#>  5        2 Cambodia                          116  2020  0.08
#>  6        2 Algeria                            12  2020  0.09
#>  7        2 Cameroon                          120  2020  0.05
#>  8        2 Canada                            124  2020  0.27
#>  9        2 Cape Verde                        132  2020  0.08
#> 10        2 Central African Republic          140  2020  0.05
#> # ℹ 3,866 more rows

mi %>%
  filter(ind == "nirate") %>%
  select(-ind) %>%
  unnest(cols = d)
#> # A tibble: 3,648 × 5
#>    scenario name                     country_code period    nirate
#>       <dbl> <chr>                           <dbl> <chr>      <dbl>
#>  1        2 Bulgaria                          100 2020-2025  -10.7
#>  2        2 Myanmar                           104 2020-2025    7.5
#>  3        2 Burundi                           108 2020-2025   28  
#>  4        2 Belarus                           112 2020-2025   -5.9
#>  5        2 Cambodia                          116 2020-2025   12.8
#>  6        2 Algeria                            12 2020-2025   17.3
#>  7        2 Cameroon                          120 2020-2025   27  
#>  8        2 Canada                            124 2020-2025    1.6
#>  9        2 Cape Verde                        132 2020-2025   11.8
#> 10        2 Central African Republic          140 2020-2025   33.4
#> # ℹ 3,638 more rows

mi %>%
  filter(ind == "ggapedu25") %>%
  select(-ind) %>%
  unnest(cols = d)
#> # A tibble: 23,256 × 6
#>    scenario name                     country_code  year education    ggapedu25
#>       <dbl> <chr>                           <dbl> <dbl> <chr>            <dbl>
#>  1        2 Bulgaria                          100  2020 No Education      -0.5
#>  2        2 Myanmar                           104  2020 No Education      -4.3
#>  3        2 Burundi                           108  2020 No Education      14.7
#>  4        2 Belarus                           112  2020 No Education      -0.1
#>  5        2 Cambodia                          116  2020 No Education     -11.9
#>  6        2 Algeria                            12  2020 No Education     -16.3
#>  7        2 Cameroon                          120  2020 No Education     -10.2
#>  8        2 Canada                            124  2020 No Education       0  
#>  9        2 Cape Verde                        132  2020 No Education       2.6
#> 10        2 Central African Republic          140  2020 No Education     -31.3
#> # ℹ 23,246 more rows

Previous versions

Previous versions of projections from the Wittgenstein Centre for
Demography are available using the version argument in
get_wdce(). Set version to "wcde-v1"
or "wcde-v2"
or "wcde-v3"
(the default since 2024).

get_wcde(indicator = "etfr",
         country_name = c("Brazil", "Albania"),
         version = "wcde-v2")
#> # A tibble: 204 × 6
#>    scenario name    country_code education          period     etfr
#>       <dbl> <chr>          <dbl> <chr>              <chr>     <dbl>
#>  1        2 Brazil            76 No Education       2015-2020  2.47
#>  2        2 Albania            8 No Education       2015-2020  1.88
#>  3        2 Brazil            76 Incomplete Primary 2015-2020  2.47
#>  4        2 Albania            8 Incomplete Primary 2015-2020  1.88
#>  5        2 Brazil            76 Primary            2015-2020  2.47
#>  6        2 Albania            8 Primary            2015-2020  1.88
#>  7        2 Brazil            76 Lower Secondary    2015-2020  1.89
#>  8        2 Albania            8 Lower Secondary    2015-2020  1.9 
#>  9        2 Brazil            76 Upper Secondary    2015-2020  1.37
#> 10        2 Albania            8 Upper Secondary    2015-2020  1.57
#> # ℹ 194 more rows
Note, not all indicators and scenarios are available in all versions
- see the the wic_indicators and wic_scenarios
objects for further details or see above.

Server

If you have trouble with connecting to the IIASA server you can try
alternative hosts using the server option in
get_wcde(), which can be set to "iiasa"
(default) "github" and "1&1".

get_wcde(indicator = "etfr",
         country_name = c("Brazil", "Albania"), 
         version = "wcde-v2", server = "github")
#> # A tibble: 204 × 6
#>    scenario name    country_code education          period     etfr
#>       <dbl> <chr>          <dbl> <chr>              <chr>     <dbl>
#>  1        2 Brazil            76 No Education       2015-2020  2.47
#>  2        2 Albania            8 No Education       2015-2020  1.88
#>  3        2 Brazil            76 Incomplete Primary 2015-2020  2.47
#>  4        2 Albania            8 Incomplete Primary 2015-2020  1.88
#>  5        2 Brazil            76 Primary            2015-2020  2.47
#>  6        2 Albania            8 Primary            2015-2020  1.88
#>  7        2 Brazil            76 Lower Secondary    2015-2020  1.89
#>  8        2 Albania            8 Lower Secondary    2015-2020  1.9 
#>  9        2 Brazil            76 Upper Secondary    2015-2020  1.37
#> 10        2 Albania            8 Upper Secondary    2015-2020  1.57
#> # ℹ 194 more rows
…
The pop_age argument can be set to all to
get population data broken down in five-year age groups. The
pop_sex argument can be set to both to get
population data broken down into female and male groups. The
pop_edu argument can be set to four,
six or eight to get population data broken
down into education categorizations with different levels of detail.

get_wcde(indicator = "pop", country_code = 900, pop_edu = "four")
#> # A tibble: 85 × 6
#>    scenario name  country_code  year education           pop
#>       <dbl> <fct>        <dbl> <dbl> <fct>             <dbl>
#>  1        2 World          900  2020 Under 15       2012336.
#>  2        2 World          900  2020 No Education    760822.
#>  3        2 World          900  2020 Primary        1209734.
#>  4        2 World          900  2020 Secondary      2854285.
#>  5        2 World          900  2020 Post Secondary  967797.
#>  6        2 World          900  2025 Under 15       2002913.
#>  7        2 World          900  2025 No Education    727777.
#>  8        2 World          900  2025 Primary        1215407.
#>  9        2 World          900  2025 Secondary      3068268.
#> 10        2 World          900  2025 Post Secondary 1137272.
#> # ℹ 75 more rows

The population breakdown arguments can be used in combination to
provide further breakdowns, for example sex and education specific
population totals

get_wcde(indicator = "pop", country_code = 900, pop_edu = "six", pop_sex = "both")
#> # A tibble: 238 × 7
#>    scenario name  country_code  year sex    education               pop
#>       <dbl> <fct>        <dbl> <dbl> <fct>  <fct>                 <dbl>
#>  1        2 World          900  2020 Male   Under 15           1037900 
#>  2        2 World          900  2020 Male   No Education        288158.
#>  3        2 World          900  2020 Male   Incomplete Primary  185528 
#>  4        2 World          900  2020 Male   Primary             409939 
#>  5        2 World          900  2020 Male   Lower Secondary     654516 
#>  6        2 World          900  2020 Male   Upper Secondary     859237.
#>  7        2 World          900  2020 Male   Post Secondary      490895.
#>  8        2 World          900  2020 Female Under 15            974436.
#>  9        2 World          900  2020 Female No Education        472664.
#> 10        2 World          900  2020 Female Incomplete Primary  198402 
#> # ℹ 228 more rows

The full age-sex-education specific data can also be obtained by
setting indicator = "epop" in get_wcde().

Population pyramids

Create population pyramids by setting male population values to
negative equivalent to allow for divergent columns from the y axis.

w <- get_wcde(indicator = "pop", country_code = 900,
              pop_age = "all", pop_sex = "both", pop_edu = "four",
              version = "wcde-v2")
w
#> # A tibble: 6,510 × 8
#>    scenario name  country_code  year age   sex    education          pop
#>       <dbl> <fct>        <dbl> <int> <fct> <fct>  <fct>            <dbl>
#>  1        2 World          900  1950 0--4  Male   Under 15       172362.
#>  2        2 World          900  1950 0--4  Male   No Education        0 
#>  3        2 World          900  1950 0--4  Male   Primary             0 
#>  4        2 World          900  1950 0--4  Male   Secondary           0 
#>  5        2 World          900  1950 0--4  Male   Post Secondary      0 
#>  6        2 World          900  1950 0--4  Female Under 15       166026.
#>  7        2 World          900  1950 0--4  Female No Education        0 
#>  8        2 World          900  1950 0--4  Female Primary             0 
#>  9        2 World          900  1950 0--4  Female Secondary           0 
#> 10        2 World          900  1950 0--4  Female Post Secondary      0 
#> # ℹ 6,500 more rows

w <- w %>%
  mutate(pop_pm = ifelse(test = sex == "Male", yes = -pop, no = pop),
         pop_pm = pop_pm/1e3)
w
#> # A tibble: 6,510 × 9
#>    scenario name  country_code  year age   sex    education          pop pop_pm
#>       <dbl> <fct>        <dbl> <int> <fct> <fct>  <fct>            <dbl>  <dbl>
#>  1        2 World          900  1950 0--4  Male   Under 15       172362.  -172.
#>  2        2 World          900  1950 0--4  Male   No Education        0      0 
#>  3        2 World          900  1950 0--4  Male   Primary             0      0 
#>  4        2 World          900  1950 0--4  Male   Secondary           0      0 
#>  5        2 World          900  1950 0--4  Male   Post Secondary      0      0 
#>  6        2 World          900  1950 0--4  Female Under 15       166026.   166.
#>  7        2 World          900  1950 0--4  Female No Education        0      0 
#>  8        2 World          900  1950 0--4  Female Primary             0      0 
#>  9        2 World          900  1950 0--4  Female Secondary           0      0 
#> 10        2 World          900  1950 0--4  Female Post Secondary      0      0 
#> # ℹ 6,500 more rows
…
